#define block_width 16
#define block_height 16
static unsigned char block_bits[] = {
   0x80, 0x80, 0x80, 0x80, 0x80, 0x80, 0xff, 0xff, 0x08, 0x08, 0x08, 0x08,
   0x08, 0x08, 0xff, 0xff, 0x80, 0x80, 0x80, 0x80, 0x80, 0x80, 0xff, 0xff,
   0x08, 0x08, 0x08, 0x08, 0x08, 0x08, 0xff, 0xff };
